    Connection conn = null;
    public static Connection ConnecrDB(){
        try{
            Class.forName("org.sqlite.JDBC");
             Connection conn = DriverManager.getConnection("jdbc:sqlite:C:\\Users\\Azharul Islam Nipu\\Documents\\NetBeansProjects\\Project123\\project123.sqlite");
             JOptionPane.showMessageDialog(null, "Connection Estabalished");
             return conn;
        }catch (Exception e){
            JOptionPane.showMessageDialog(null, e);
            return null;
        }
        
    }